Pos,Player,Team,Dots,Matches,Innings,Runs,Maiden,dbm,
1,Jofra Archer,ENG,371,11,13,491,8,371 DotBalls & 8 Maidens,
2,Trent Boult,NZ,351,10,10,479,4,351 DotBalls & 4 Maidens,
3,Pat Cummins,AUS,323,10,10,427,6,323 DotBalls & 6 Maidens,
4,Mitchell Starc,AUS,319,10,10,502,5,319 DotBalls & 5 Maidens,
5,Lockie Ferguson,NZ,301,9,9,409,3,301 DotBalls & 3 Maidens,
6,Chris Woakes,ENG,300,11,11,450,6,300 DotBalls & 6 Maidens,
7,Matt Henry,NZ,297,9,9,392,5,297 DotBalls & 5 Maidens,
8,Jasprit Bumrah,IND,294,9,9,371,9,294 DotBalls & 9 Maidens,
9,Mark Wood,ENG,276,10,10,463,2,276 DotBalls & 2 Maidens,
10,Kagiso Rabada,SA,273,9,8,397,4,273 DotBalls & 4 Maidens,
11,Mohammad Amir,PAK,242,8,8,358,5,242 DotBalls & 5 Maidens,
12,Adil Rashid,ENG,238,11,11,526,0,238 DotBalls & 0 Maidens,5.71
13,Mohammad Nabi,AFG,223,9,9,335,0,223 DotBalls & 0 Maidens,
14,Rashid Khan,AFG,220,9,8,416,1,220 DotBalls & 1 Maidens,
15,Yuzvendra Chahal,IND,218,8,8,442,0,218 DotBalls & 0 Maidens,5.97
16,Chris Morris,SA,214,8,7,341,5,214 DotBalls & 5 Maidens,
17,Imran Tahir,SA,213,9,8,374,0,213 DotBalls & 0 Maidens,4.92
18,Mitchell Santner,NZ,211,10,9,323,4,211 DotBalls & 4 Maidens,
19,Sheldon Cottrell,WI,211,9,9,392,2,211 DotBalls & 2 Maidens,
20,Hardik Pandya,IND,208,9,9,447,1,208 DotBalls & 1 Maidens,
21,Shakib Al Hasan,BAN,204,8,8,399,1,204 DotBalls & 1 Maidens,
22,Mustafizur Rahman,BAN,199,8,8,484,2,199 DotBalls & 2 Maidens,
24,Jason Holder,WI,195,9,8,343,4,195 DotBalls & 4 Maidens,
23,Mujeeb Ur Rahman,AFG,195,7,7,259,1,195 DotBalls & 1 Maidens,
25,Lasith Malinga,SL,192,7,7,373,4,192 DotBalls & 4 Maidens,
27,Andile Phehlukwayo,SA,187,9,8,336,2,187 DotBalls & 2 Maidens,
26,Mehidy Hasan,BAN,187,7,7,341,0,187 DotBalls & 0 Maidens,5.08
28,Wahab Riaz,PAK,185,8,8,400,1,185 DotBalls & 1 Maidens,
29,Kuldeep Yadav,IND,184,7,7,337,2,184 DotBalls & 2 Maidens,
30,Oshane Thomas,WI,181,9,9,380,1,181 DotBalls & 1 Maidens,
31,Colin de Grandhomme,NZ,180,10,10,212,4,180 DotBalls & 4 Maidens,
32,Jimmy Neesham,NZ,177,10,9,292,2,177 DotBalls & 2 Maidens,
33,Gulbadin Naib,AFG,170,9,9,420,2,170 DotBalls & 2 Maidens,
34,Shaheen Afridi,PAK,166,5,5,234,3,166 DotBalls & 3 Maidens,
35,Liam Plunkett,ENG,164,7,7,272,0,164 DotBalls & 0 Maidens,4.85
36,Bhuvneshwar Kumar,IND,160,6,6,269,1,160 DotBalls & 1 Maidens,
37,Shadab Khan,PAK,154,7,6,319,1,154 DotBalls & 1 Maidens,
39,Jason Behrendorff,AUS,152,5,5,227,2,152 DotBalls & 2 Maidens,
38,Ben Stokes,ENG,152,11,11,246,1,152 DotBalls & 1 Maidens,
41,Mohammad Saifuddin,BAN,148,7,7,417,2,148 DotBalls & 2 Maidens,
40,Mashrafe Mortaza,BAN,148,8,8,361,1,148 DotBalls & 1 Maidens,
42,Isuru Udana,SL,146,7,7,295,0,146 DotBalls & 0 Maidens,5.76
2,Nathan Coulter-Nile,AUS,137,5,5,280,2,137 DotBalls & 2 Maidens,
4,Kemar Roach,WI,131,4,4,121,4,131 DotBalls & 4 Maidens,
45,Mohammed Shami,IND,126,4,4,193,2,126 DotBalls & 2 Maidens,
1,Dawlat Zadran,AFG,117,5,5,288,1,117 DotBalls & 1 Maidens,
47,Glenn Maxwell,AUS,116,10,8,295,1,116 DotBalls & 1 Maidens,
48,Thisara Perera,SL,111,6,6,207,1,111 DotBalls & 1 Maidens,
49,Moeen Ali,ENG,111,5,5,230,0,111 DotBalls & 0 Maidens,5.34
50,Marcus Stoinis,AUS,109,8,8,244,1,109 DotBalls & 1 Maidens,